newPro/simulation/qsim/main.msim.vcd
$comment
	File created using the following command:
		vcd file main.msim.vcd -direction
$end
$date
	Thu May 03 14:32:01 2018
$end
$version
	ModelSim Version 10.1d
$end
$timescale
	1ps
$end
$scope module IR_ins_selc1_alu_selc2_control_mem_pc_vlg_vec_tst $end
$var reg 1 ! clk $end
$var reg 1 " rst $end
$var reg 1 # start_but $end
$var wire 1 $ data_out [3] $end
$var wire 1 % data_out [2] $end
$var wire 1 & data_out [1] $end
$var wire 1 ' data_out [0] $end
$var wire 1 ( t_data_outA [3] $end
$var wire 1 ) t_data_outA [2] $end
$var wire 1 * t_data_outA [1] $end
$var wire 1 + t_data_outA [0] $end
$var wire 1 , t_data_outB [3] $end
$var wire 1 - t_data_outB [2] $end
$var wire 1 . t_data_outB [1] $end
$var wire 1 / t_data_outB [0] $end
$var wire 1 0 t_opCode [2] $end
$var wire 1 1 t_opCode [1] $end
$var wire 1 2 t_opCode [0] $end
$var wire 1 3 t_pc [3] $end
$var wire 1 4 t_pc [2] $end
$var wire 1 5 t_pc [1] $end
$var wire 1 6 t_pc [0] $end
$var wire 1 7 t_sig_pc $end
$var wire 1 8 test_out_ins [3] $end
$var wire 1 9 test_out_ins [2] $end
$var wire 1 : test_out_ins [1] $end
$var wire 1 ; test_out_ins [0] $end
$var wire 1 < sampler $end
$scope module i1 $end
$var wire 1 = gnd $end
$var wire 1 > vcc $end
$var wire 1 ? unknown $end
$var tri1 1 @ devclrn $end
$var tri1 1 A devpor $end
$var tri1 1 B devoe $end
$var wire 1 C data_out[0]~output_o $end
$var wire 1 D data_out[1]~output_o $end
$var wire 1 E data_out[2]~output_o $end
$var wire 1 F data_out[3]~output_o $end
$var wire 1 G t_data_outA[0]~output_o $end
$var wire 1 H t_data_outA[1]~output_o $end
$var wire 1 I t_data_outA[2]~output_o $end
$var wire 1 J t_data_outA[3]~output_o $end
$var wire 1 K t_data_outB[0]~output_o $end
$var wire 1 L t_data_outB[1]~output_o $end
$var wire 1 M t_data_outB[2]~output_o $end
$var wire 1 N t_data_outB[3]~output_o $end
$var wire 1 O t_opCode[0]~output_o $end
$var wire 1 P t_opCode[1]~output_o $end
$var wire 1 Q t_opCode[2]~output_o $end
$var wire 1 R t_sig_pc~output_o $end
$var wire 1 S t_pc[0]~output_o $end
$var wire 1 T t_pc[1]~output_o $end
$var wire 1 U t_pc[2]~output_o $end
$var wire 1 V t_pc[3]~output_o $end
$var wire 1 W test_out_ins[0]~output_o $end
$var wire 1 X test_out_ins[1]~output_o $end
$var wire 1 Y test_out_ins[2]~output_o $end
$var wire 1 Z test_out_ins[3]~output_o $end
$var wire 1 [ clk~input_o $end
$var wire 1 \ start_but~input_o $end
$var wire 1 ] rst~input_o $end
$var wire 1 ^ U4|Selector0~0_combout $end
$var wire 1 _ U4|state.start_st~q $end
$var wire 1 ` U0|state.buffer_st~q $end
$var wire 1 a U0|state.buffer_st2~q $end
$var wire 1 b U0|state.fetch_data~q $end
$var wire 1 c U0|sign_out~q $end
$var wire 1 d U5|Selector4~0_combout $end
$var wire 1 e U2|state.wait_st~0_combout $end
$var wire 1 f U2|state.wait_st~q $end
$var wire 1 g U2|o_reg_A[2]~0_combout $end
$var wire 1 h U2|o_sign~0_combout $end
$var wire 1 i U2|o_sign~q $end
$var wire 1 j U3|Selector0~0_combout $end
$var wire 1 k U3|state.start_st~q $end
$var wire 1 l U3|Selector1~1_combout $end
$var wire 1 m U3|Selector1~0_combout $end
$var wire 1 n U3|state.adder_st~q $end
$var wire 1 o U3|o_alu[3]~0_combout $end
$var wire 1 p U3|sig_alu~q $end
$var wire 1 q U4|Selector1~0_combout $end
$var wire 1 r U4|Selector2~0_combout $end
$var wire 1 s U4|Selector2~1_combout $end
$var wire 1 t U4|state.store_load_st~q $end
$var wire 1 u U4|Selector1~1_combout $end
$var wire 1 v U4|Selector1~2_combout $end
$var wire 1 w U4|Selector1~3_combout $end
$var wire 1 x U4|state.adder_st~q $end
$var wire 1 y U4|Selector3~0_combout $end
$var wire 1 z U4|Selector3~1_combout $end
$var wire 1 { U4|state.success_st~q $end
$var wire 1 | U4|sig_out~q $end
$var wire 1 } U5|Selector2~0_combout $end
$var wire 1 ~ U5|state.start_st~q $end
$var wire 1 !! U5|Selector3~0_combout $end
$var wire 1 "! U5|Selector4~2_combout $end
$var wire 1 #! U5|state.adder_st~q $end
$var wire 1 $! U5|out_alu[0]~0_combout $end
$var wire 1 %! U5|sign_pc~q $end
$var wire 1 &! U7|Selector5~0_combout $end
$var wire 1 '! U7|temp_pc[1]~1_combout $end
$var wire 1 (! U7|temp_pc[2]~2_combout $end
$var wire 1 )! U7|temp_pc~0_combout $end
$var wire 1 *! U7|temp_pc~3_combout $end
$var wire 1 +! U7|Equal0~0_combout $end
$var wire 1 ,! U7|Selector5~1_combout $end
$var wire 1 -! U7|state.start_pro~q $end
$var wire 1 .! U7|Selector0~0_combout $end
$var wire 1 /! U7|sign_o~q $end
$var wire 1 0! U0|Selector4~0_combout $end
$var wire 1 1! U0|state.wait_pc~q $end
$var wire 1 2! U0|state~16_combout $end
$var wire 1 3! U0|state.orgnize_data~q $end
$var wire 1 4! U0|state.fetch_opcode~q $end
$var wire 1 5! U7|Selector2~0_combout $end
$var wire 1 6! U7|pc_o[0]~0_combout $end
$var wire 1 7! U7|Selector1~0_combout $end
$var wire 1 8! U0|memory~7_combout $end
$var wire 1 9! U0|temp_assambly[10]~0_combout $end
$var wire 1 :! U0|o_opcode~0_combout $end
$var wire 1 ;! U7|Selector3~0_combout $end
$var wire 1 <! U0|memory~8_combout $end
$var wire 1 =! U0|o_opcode~1_combout $end
$var wire 1 >! U0|memory~9_combout $end
$var wire 1 ?! U0|o_opcode~2_combout $end
$var wire 1 @! U1|state~13_combout $end
$var wire 1 A! U1|state.wait_st~q $end
$var wire 1 B! U1|state~12_combout $end
$var wire 1 C! U1|state.adder_st~q $end
$var wire 1 D! U1|o_one_instr~0_combout $end
$var wire 1 E! U5|Selector4~1_combout $end
$var wire 1 F! U5|state.store_load_st~q $end
$var wire 1 G! U5|Selector1~0_combout $end
$var wire 1 H! U5|sig_mem~q $end
$var wire 1 I! U1|state~14_combout $end
$var wire 1 J! U1|state.store_st~q $end
$var wire 1 K! U1|state~15_combout $end
$var wire 1 L! U1|state.load_st~q $end
$var wire 1 M! U6|Selector0~0_combout $end
$var wire 1 N! U6|state.start_st~q $end
$var wire 1 O! U6|WideOr0~1_combout $end
$var wire 1 P! U6|Selector1~0_combout $end
$var wire 1 Q! U6|addr[1]~0_combout $end
$var wire 1 R! U6|Selector1~1_combout $end
$var wire 1 S! U6|Selector1~2_combout $end
$var wire 1 T! U6|state.store_address_st~q $end
$var wire 1 U! U6|Selector2~0_combout $end
$var wire 1 V! U6|state.store_data_st~q $end
$var wire 1 W! U6|WideOr0~0_combout $end
$var wire 1 X! U6|Selector3~0_combout $end
$var wire 1 Y! U6|Selector3~1_combout $end
$var wire 1 Z! U6|state.load_address_st~q $end
$var wire 1 [! U6|Selector4~0_combout $end
$var wire 1 \! U6|state.load_data_st~q $end
$var wire 1 ]! U6|Selector5~0_combout $end
$var wire 1 ^! U6|state.success_st~q $end
$var wire 1 _! U6|sig_pc~q $end
$var wire 1 `! U7|Selector6~0_combout $end
$var wire 1 a! U7|state.wait_sign~q $end
$var wire 1 b! U7|Selector7~0_combout $end
$var wire 1 c! U7|state.add_pc~q $end
$var wire 1 d! U7|Selector8~0_combout $end
$var wire 1 e! U7|state.success_st~q $end
$var wire 1 f! U7|Selector4~0_combout $end
$var wire 1 g! U0|memory~4_combout $end
$var wire 1 h! U0|memory~0_combout $end
$var wire 1 i! U4|temp_result[0]~4_combout $end
$var wire 1 j! U4|temp_result[3]~8_combout $end
$var wire 1 k! U5|Selector0~0_combout $end
$var wire 1 l! U5|sig_alu~q $end
$var wire 1 m! U2|tem_reg_C~0_combout $end
$var wire 1 n! U2|tem_reg_C[0]~1_combout $end
$var wire 1 o! U2|state.adder_st~0_combout $end
$var wire 1 p! U2|state.adder_st~1_combout $end
$var wire 1 q! U2|state.adder_st~2_combout $end
$var wire 1 r! U2|state.adder_st~q $end
$var wire 1 s! U2|Selector11~0_combout $end
$var wire 1 t! U3|Selector2~0_combout $end
$var wire 1 u! U3|state.store_load_st~q $end
$var wire 1 v! U3|o_data_mem[0]~0_combout $end
$var wire 1 w! U5|out_mem[0]~0_combout $end
$var wire 1 x! U0|memory~5_combout $end
$var wire 1 y! U6|memory~35_q $end
$var wire 1 z! U0|memory~6_combout $end
$var wire 1 {! U6|memory~32_q $end
$var wire 1 |! U6|memory~115_combout $end
$var wire 1 }! U6|memory~116_combout $end
$var wire 1 ~! U6|memory~48_q $end
$var wire 1 !" U6|memory~131_combout $end
$var wire 1 "" U6|memory~132_combout $end
$var wire 1 #" U6|memory~16_q $end
$var wire 1 $" U6|memory~103_combout $end
$var wire 1 %" U6|memory~137_combout $end
$var wire 1 &" U6|memory~138_combout $end
$var wire 1 '" U6|memory~64_q $end
$var wire 1 (" U6|memory~104_combout $end
$var wire 1 )" U6|memory~52_q $end
$var wire 1 *" U6|memory~36_q $end
$var wire 1 +" U6|memory~129_combout $end
$var wire 1 ," U6|memory~130_combout $end
$var wire 1 -" U6|memory~20_q $end
$var wire 1 ." U6|memory~105_combout $end
$var wire 1 /" U6|memory~139_combout $end
$var wire 1 0" U6|memory~140_combout $end
$var wire 1 1" U6|memory~68_q $end
$var wire 1 2" U6|memory~106_combout $end
$var wire 1 3" U6|memory~117_combout $end
$var wire 1 4" U6|memory~118_combout $end
$var wire 1 5" U6|memory~44_q $end
$var wire 1 6" U6|memory~125_combout $end
$var wire 1 7" U6|memory~126_combout $end
$var wire 1 8" U6|memory~28_q $end
$var wire 1 9" U6|memory~133_combout $end
$var wire 1 :" U6|memory~134_combout $end
$var wire 1 ;" U6|memory~12_q $end
$var wire 1 <" U6|memory~107_combout $end
$var wire 1 =" U6|memory~141_combout $end
$var wire 1 >" U6|memory~142_combout $end
$var wire 1 ?" U6|memory~60_q $end
$var wire 1 @" U6|memory~108_combout $end
$var wire 1 A" U6|memory~109_combout $end
$var wire 1 B" U6|memory~127_combout $end
$var wire 1 C" U6|memory~128_combout $end
$var wire 1 D" U6|memory~40_q $end
$var wire 1 E" U6|memory~119_combout $end
$var wire 1 F" U6|memory~120_combout $end
$var wire 1 G" U6|memory~56_q $end
$var wire 1 H" U6|memory~135_combout $end
$var wire 1 I" U6|memory~136_combout $end
$var wire 1 J" U6|memory~24_q $end
$var wire 1 K" U6|memory~110_combout $end
$var wire 1 L" U6|memory~143_combout $end
$var wire 1 M" U6|memory~144_combout $end
$var wire 1 N" U6|memory~72_q $end
$var wire 1 O" U6|memory~111_combout $end
$var wire 1 P" U6|memory~112_combout $end
$var wire 1 Q" U2|tem_reg_C~4_combout $end
$var wire 1 R" U2|Selector8~0_combout $end
$var wire 1 S" U0|memory~3_combout $end
$var wire 1 T" U0|memory~2_combout $end
$var wire 1 U" U0|memory~1_combout $end
$var wire 1 V" U4|temp_result[0]~5 $end
$var wire 1 W" U4|temp_result[1]~7 $end
$var wire 1 X" U4|temp_result[2]~10 $end
$var wire 1 Y" U4|temp_result[3]~11_combout $end
$var wire 1 Z" U6|memory~121_combout $end
$var wire 1 [" U6|memory~122_combout $end
$var wire 1 \" U6|memory~31_q $end
$var wire 1 ]" U6|memory~27_q $end
$var wire 1 ^" U6|memory~93_combout $end
$var wire 1 _" U6|memory~39_q $end
$var wire 1 `" U6|memory~94_combout $end
$var wire 1 a" U6|memory~47_q $end
$var wire 1 b" U6|memory~51_q $end
$var wire 1 c" U6|memory~43_q $end
$var wire 1 d" U6|memory~95_combout $end
$var wire 1 e" U6|memory~55_q $end
$var wire 1 f" U6|memory~96_combout $end
$var wire 1 g" U6|memory~15_q $end
$var wire 1 h" U6|memory~19_q $end
$var wire 1 i" U6|memory~11_q $end
$var wire 1 j" U6|memory~97_combout $end
$var wire 1 k" U6|memory~23_q $end
$var wire 1 l" U6|memory~98_combout $end
$var wire 1 m" U6|memory~99_combout $end
$var wire 1 n" U6|memory~67_q $end
$var wire 1 o" U6|memory~63_q $end
$var wire 1 p" U6|memory~59_q $end
$var wire 1 q" U6|memory~100_combout $end
$var wire 1 r" U6|memory~71_q $end
$var wire 1 s" U6|memory~101_combout $end
$var wire 1 t" U6|memory~102_combout $end
$var wire 1 u" U2|tem_reg_C~3_combout $end
$var wire 1 v" U2|Selector9~0_combout $end
$var wire 1 w" U4|temp_result[2]~9_combout $end
$var wire 1 x" U6|memory~123_combout $end
$var wire 1 y" U6|memory~124_combout $end
$var wire 1 z" U6|memory~34_q $end
$var wire 1 {" U6|memory~50_q $end
$var wire 1 |" U6|memory~18_q $end
$var wire 1 }" U6|memory~83_combout $end
$var wire 1 ~" U6|memory~66_q $end
$var wire 1 !# U6|memory~84_combout $end
$var wire 1 "# U6|memory~46_q $end
$var wire 1 ## U6|memory~30_q $end
$var wire 1 $# U6|memory~14_q $end
$var wire 1 %# U6|memory~85_combout $end
$var wire 1 &# U6|memory~62_q $end
$var wire 1 '# U6|memory~86_combout $end
$var wire 1 (# U6|memory~26_q $end
$var wire 1 )# U6|memory~42_q $end
$var wire 1 *# U6|memory~10_q $end
$var wire 1 +# U6|memory~87_combout $end
$var wire 1 ,# U6|memory~58_q $end
$var wire 1 -# U6|memory~88_combout $end
$var wire 1 .# U6|memory~89_combout $end
$var wire 1 /# U6|memory~54_q $end
$var wire 1 0# U6|memory~38_q $end
$var wire 1 1# U6|memory~22_q $end
$var wire 1 2# U6|memory~90_combout $end
$var wire 1 3# U6|memory~70_q $end
$var wire 1 4# U6|memory~91_combout $end
$var wire 1 5# U6|memory~92_combout $end
$var wire 1 6# U2|tem_reg_C~2_combout $end
$var wire 1 7# U2|Selector10~0_combout $end
$var wire 1 8# U4|temp_result[1]~6_combout $end
$var wire 1 9# U6|memory~113_combout $end
$var wire 1 :# U6|memory~114_combout $end
$var wire 1 ;# U6|memory~49_q $end
$var wire 1 <# U6|memory~45_q $end
$var wire 1 =# U6|memory~41_q $end
$var wire 1 ># U6|memory~73_combout $end
$var wire 1 ?# U6|memory~53_q $end
$var wire 1 @# U6|memory~74_combout $end
$var wire 1 A# U6|memory~29_q $end
$var wire 1 B# U6|memory~33_q $end
$var wire 1 C# U6|memory~25_q $end
$var wire 1 D# U6|memory~75_combout $end
$var wire 1 E# U6|memory~37_q $end
$var wire 1 F# U6|memory~76_combout $end
$var wire 1 G# U6|memory~17_q $end
$var wire 1 H# U6|memory~13_q $end
$var wire 1 I# U6|memory~9_q $end
$var wire 1 J# U6|memory~77_combout $end
$var wire 1 K# U6|memory~21_q $end
$var wire 1 L# U6|memory~78_combout $end
$var wire 1 M# U6|memory~79_combout $end
$var wire 1 N# U6|memory~61_q $end
$var wire 1 O# U6|memory~65_q $end
$var wire 1 P# U6|memory~57_q $end
$var wire 1 Q# U6|memory~80_combout $end
$var wire 1 R# U6|memory~69_q $end
$var wire 1 S# U6|memory~81_combout $end
$var wire 1 T# U6|memory~82_combout $end
$var wire 1 U# U3|o_data_mem [3] $end
$var wire 1 V# U3|o_data_mem [2] $end
$var wire 1 W# U3|o_data_mem [1] $end
$var wire 1 X# U3|o_data_mem [0] $end
$var wire 1 Y# U4|result [3] $end
$var wire 1 Z# U4|result [2] $end
$var wire 1 [# U4|result [1] $end
$var wire 1 \# U4|result [0] $end
$var wire 1 ]# U5|out_mem [3] $end
$var wire 1 ^# U5|out_mem [2] $end
$var wire 1 _# U5|out_mem [1] $end
$var wire 1 `# U5|out_mem [0] $end
$var wire 1 a# U5|out_alu [3] $end
$var wire 1 b# U5|out_alu [2] $end
$var wire 1 c# U5|out_alu [1] $end
$var wire 1 d# U5|out_alu [0] $end
$var wire 1 e# U6|data_out [3] $end
$var wire 1 f# U6|data_out [2] $end
$var wire 1 g# U6|data_out [1] $end
$var wire 1 h# U6|data_out [0] $end
$var wire 1 i# U7|pc_o [3] $end
$var wire 1 j# U7|pc_o [2] $end
$var wire 1 k# U7|pc_o [1] $end
$var wire 1 l# U7|pc_o [0] $end
$var wire 1 m# U7|temp_pc [3] $end
$var wire 1 n# U7|temp_pc [2] $end
$var wire 1 o# U7|temp_pc [1] $end
$var wire 1 p# U7|temp_pc [0] $end
$var wire 1 q# U3|o_alu [3] $end
$var wire 1 r# U3|o_alu [2] $end
$var wire 1 s# U3|o_alu [1] $end
$var wire 1 t# U3|o_alu [0] $end
$var wire 1 u# U4|temp_result [3] $end
$var wire 1 v# U4|temp_result [2] $end
$var wire 1 w# U4|temp_result [1] $end
$var wire 1 x# U4|temp_result [0] $end
$var wire 1 y# U6|addr [3] $end
$var wire 1 z# U6|addr [2] $end
$var wire 1 {# U6|addr [1] $end
$var wire 1 |# U6|addr [0] $end
$var wire 1 }# U0|temp_assambly [10] $end
$var wire 1 ~# U0|temp_assambly [9] $end
$var wire 1 !$ U0|temp_assambly [8] $end
$var wire 1 "$ U0|temp_assambly [7] $end
$var wire 1 #$ U0|temp_assambly [6] $end
$var wire 1 $$ U0|temp_assambly [5] $end
$var wire 1 %$ U0|temp_assambly [4] $end
$var wire 1 &$ U0|temp_assambly [3] $end
$var wire 1 '$ U0|temp_assambly [2] $end
$var wire 1 ($ U0|temp_assambly [1] $end
$var wire 1 )$ U0|temp_assambly [0] $end
$var wire 1 *$ U0|o_reg_B [3] $end
$var wire 1 +$ U0|o_reg_B [2] $end
$var wire 1 ,$ U0|o_reg_B [1] $end
$var wire 1 -$ U0|o_reg_B [0] $end
$var wire 1 .$ U1|o_select_1 [2] $end
$var wire 1 /$ U1|o_select_1 [1] $end
$var wire 1 0$ U1|o_select_1 [0] $end
$var wire 1 1$ U2|o_reg_B [3] $end
$var wire 1 2$ U2|o_reg_B [2] $end
$var wire 1 3$ U2|o_reg_B [1] $end
$var wire 1 4$ U2|o_reg_B [0] $end
$var wire 1 5$ U2|tem_reg_C [3] $end
$var wire 1 6$ U2|tem_reg_C [2] $end
$var wire 1 7$ U2|tem_reg_C [1] $end
$var wire 1 8$ U2|tem_reg_C [0] $end
$var wire 1 9$ U1|o_mem [1] $end
$var wire 1 :$ U1|o_mem [0] $end
$var wire 1 ;$ U0|temp_reg_A [3] $end
$var wire 1 <$ U0|temp_reg_A [2] $end
$var wire 1 =$ U0|temp_reg_A [1] $end
$var wire 1 >$ U0|temp_reg_A [0] $end
$var wire 1 ?$ U0|temp_opcode [2] $end
$var wire 1 @$ U0|temp_opcode [1] $end
$var wire 1 A$ U0|temp_opcode [0] $end
$var wire 1 B$ U2|o_reg_A [3] $end
$var wire 1 C$ U2|o_reg_A [2] $end
$var wire 1 D$ U2|o_reg_A [1] $end
$var wire 1 E$ U2|o_reg_A [0] $end
$var wire 1 F$ U0|o_opcode [2] $end
$var wire 1 G$ U0|o_opcode [1] $end
$var wire 1 H$ U0|o_opcode [0] $end
$var wire 1 I$ U0|temp_reg_B [3] $end
$var wire 1 J$ U0|temp_reg_B [2] $end
$var wire 1 K$ U0|temp_reg_B [1] $end
$var wire 1 L$ U0|temp_reg_B [0] $end
$var wire 1 M$ U0|o_reg_A [3] $end
$var wire 1 N$ U0|o_reg_A [2] $end
$var wire 1 O$ U0|o_reg_A [1] $end
$var wire 1 P$ U0|o_reg_A [0] $end
$upscope $end
$upscope $end
$enddefinitions $end
#0
$dumpvars
0!
1"
0#
0\
1]
0^
0_
0`
0a
0b
0c
0d
0e
0f
1g
0h
0i
0j
0k
1l
0m
0n
0o
0p
0q
0r
0s
0t
0u
1v
0w
0x
0y
0z
0{
0|
0}
0~
1!!
0"!
0#!
0$!
0%!
0&!
0'!
0(!
1)!
0*!
0+!
0,!
0-!
0.!
0/!
00!
01!
02!
03!
04!
05!
06!
07!
18!
09!
0:!
0;!
0<!
0=!
0>!
0?!
0@!
0A!
0B!
0C!
0D!
0E!
0F!
0G!
0H!
0I!
0J!
0K!
0L!
0M!
0N!
0O!
0P!
1Q!
0R!
0S!
0T!
0U!
0V!
1W!
0X!
0Y!
0Z!
0[!
0\!
0]!
0^!
0_!
0`!
0a!
0b!
0c!
0d!
0e!
0f!
0g!
1h!
0i!
0j!
0k!
0l!
0m!
0n!
0o!
1p!
0q!
0r!
0s!
0t!
0u!
0v!
0w!
1x!
0y!
0z!
0{!
0|!
0}!
0~!
0!"
0""
0#"
0$"
0%"
0&"
0'"
0("
0)"
0*"
0+"
0,"
0-"
0."
0/"
00"
01"
02"
03"
04"
05"
06"
07"
08"
19"
0:"
0;"
0<"
0="
0>"
0?"
0@"
0A"
0B"
0C"
0D"
0E"
0F"
0G"
0H"
0I"
0J"
0K"
0L"
0M"
0N"
0O"
0P"
0Q"
0R"
0S"
0T"
1U"
0V"
1W"
0X"
0Y"
0Z"
0["
0\"
0]"
0^"
0_"
0`"
0a"
0b"
0c"
0d"
0e"
0f"
0g"
0h"
0i"
0j"
0k"
0l"
0m"
0n"
0o"
0p"
0q"
0r"
0s"
0t"
0u"
0v"
0w"
0x"
0y"
0z"
0{"
0|"
0}"
0~"
0!#
0"#
0##
0$#
0%#
0&#
0'#
0(#
0)#
0*#
0+#
0,#
0-#
0.#
0/#
00#
01#
02#
03#
04#
05#
06#
07#
08#
09#
0:#
0;#
0<#
0=#
0>#
0?#
0@#
0A#
0B#
0C#
0D#
0E#
0F#
0G#
0H#
0I#
0J#
0K#
0L#
0M#
0N#
0O#
0P#
0Q#
0R#
0S#
0T#
0X#
0W#
0V#
0U#
0\#
0[#
0Z#
0Y#
0`#
0_#
0^#
0]#
0d#
0c#
0b#
0a#
0h#
0g#
0f#
0e#
0l#
0k#
0j#
0i#
0p#
0o#
0n#
0m#
0t#
0s#
0r#
0q#
0x#
0w#
0v#
0u#
0|#
0{#
0z#
0y#
0)$
0($
z'$
0&$
0%$
0$$
0#$
0"$
0!$
0~#
0}#
0-$
0,$
z+$
0*$
00$
0/$
z.$
04$
03$
02$
01$
08$
07$
06$
05$
0:$
09$
0>$
0=$
0<$
0;$
0A$
0@$
0?$
0E$
0D$
0C$
0B$
0H$
0G$
0F$
0L$
0K$
zJ$
0I$
0P$
0O$
0N$
0M$
0'
0&
0%
0$
0+
0*
0)
0(
0/
0.
0-
0,
02
01
00
06
05
04
03
07
0;
0:
09
08
x<
0=
1>
x?
1@
1A
1B
0C
0D
0E
0F
0G
0H
0I
0J
0K
0L
0M
0N
0O
0P
0Q
0R
0S
0T
0U
0V
0W
0X
0Y
0Z
0[
$end
#5000
1!
1[
0<
#10000
0!
0[
1<
#15000
1!
1[
0<
#20000
0!
0[
1<
#25000
1!
1[
0<
#30000
1#
0!
1\
0[
1<
16!
1.!
1&!
1`!
1,!
#35000
1!
1[
0<
1a!
1-!
1/!
06!
0&!
0.!
19!
12!
10!
1R
17
#40000
0#
0!
0\
0[
1<
#45000
1!
1[
0<
1$$
1($
1%$
1~#
13!
11!
0/!
09!
02!
0R
07
#50000
0!
0[
1<
#55000
1!
1[
0<
1=$
1K$
1>$
1@$
14!
03!
1:!
#60000
0!
0[
1<
#65000
1!
1[
0<
1G$
04!
1`
1B!
1@!
0:!
#70000
0!
0[
1<
#75000
1!
1[
0<
1C!
1A!
0G$
1a
0`
0B!
0@!
#80000
0!
0[
1<
#85000
1!
1[
0<
0C!
0A!
1b
0a
1/$
00!
1o!
1"!
1}
1q
1m
1j
1d
1^
1P
11
1q!
1w
0p!
0v
1e
#90000
0!
0[
1<
#95000
1!
1[
0<
1O$
1,$
1r!
1P$
01!
1#!
1~
1x
1n
1k
1f
1c
0b
1_
0/$
17#
0"!
0!!
0m
0l
0o!
0g
0e
1v
0q
0d
0P
01
0q!
1h
#100000
0!
0[
1<
#105000
1!
1[
0<
0r!
1i
0f
0c
13$
1D$
1E$
07#
1o
1m
0j
1p!
1g
18#
1i!
1X
1L
1H
1G
1:
1.
1*
1+
0h
#110000
0!
0[
1<
#115000
1!
1[
0<
1s#
1p
0n
0k
0i
0W"
08#
1j!
1y
1u
0o
0m
1l
1w"
1z
0v
0w
#120000
0!
0[
1<
#125000
1!
1[
0<
1v#
1x#
1{
0x
0p
0z
0^
0j!
0y
0u
#130000
0!
0[
1<
#135000
1!
1[
0<
1Z#
1\#
1|
0{
0_
1k!
1$!
1"!
0}
1v
#140000
0!
0[
1<
#145000
1!
1[
0<
1b#
1l!
1d#
1%!
0#!
0~
0|
1u"
1n!
1m!
0k!
1b!
0`!
1&!
0$!
0"!
1!!
#150000
0!
0[
1<
#155000
1!
1[
0<
16$
18$
0l!
1c!
0a!
0%!
1v"
1s!
0u"
0n!
0m!
1d!
0b!
0&!
#160000
0!
0[
1<
#165000
1!
1[
0<
1e!
0c!
1p#
1f!
1.!
0d!
16!
0)!
1`!
#170000
0!
0[
1<
#175000
1!
1[
0<
0e!
1a!
1l#
1/!
0f!
0.!
06!
0U"
1z!
1g!
1>!
08!
19!
12!
10!
1S
1R
16
17
#180000
0!
0[
1<
#185000
1!
1[
0<
0$$
1&$
1)$
1!$
0~#
13!
11!
0/!
09!
02!
0R
07
#190000
0!
0[
1<
#195000
1!
1[
0<
0=$
1I$
1L$
1A$
0@$
14!
03!
1?!
#200000
0!
0[
1<
#205000
1!
1[
0<
1H$
04!
1`
1I!
1@!
0?!
#210000
0!
0[
1<
#215000
1!
1[
0<
1J!
1A!
0H$
1a
0`
0I!
1D!
0@!
#220000
0!
0[
1<
#225000
1!
1[
0<
1:$
0J!
0A!
1b
0a
10$
1P!
1O!
1M!
0D!
00!
1t!
1E!
1"!
0!!
1}
1r
1m
0l
1j
1d
1^
1O
12
1R!
1S!
1s
0p!
0v
1e
#230000
0!
0[
1<
#235000
1!
1[
0<
0O$
1*$
1u!
1-$
1T!
1N!
0:$
1F!
01!
1~
1t
1k
1f
1c
0b
1_
00$
0P!
0O!
0E!
0"!
0t!
0m
0g
0e
1v
0r
0d
0O
02
0R!
0S!
1h
1S!
#240000
0!
0[
1<
#245000
1!
1[
0<
1i
0f
0c
03$
12$
0D$
14$
1v!
1j!
1y
1u
1m
0j
1p!
1g
1W"
18#
0X
0L
1Y
1M
0H
1W
1K
0:
0.
19
1-
0*
1;
1/
1z
0v
0h
0w"
0s
#250000
0!
0[
1<
#255000
1!
1[
0<
0v#
1V#
1X#
0u!
1{
0t
0k
0i
0v!
0z
0^
0j!
0u
0m
1l
0y
#260000
0!
0[
1<
#265000
1!
1[
0<
0Z#
1|
0{
0_
1w!
1G!
1"!
0}
1v
#270000
0!
0[
1<
#275000
1!
1[
0<
1`#
1H!
0F!
0~
0|
1U!
0Q!
0G!
0w!
0"!
1!!
1R!
0S!
#280000
0!
0[
1<
#285000
1!
1[
0<
1|#
1V!
0T!
0H!
09"
1!"
1:"
1]!
0W!
0U!
1Q!
0:"
1""
#290000
0!
0[
1<
#295000
1!
1[
0<
1H#
1g"
1^!
0V!
1J#
1l"
0]!
0M!
0""
1L#
1m"
1M#
1t"
1T#
#300000
0!
0[
1<
#305000
1!
1[
0<
1_!
0^!
0N!
1n!
1b!
0`!
1&!
1W!
0R!
#310000
0!
0[
1<
#315000
1!
1[
0<
06$
08$
1c!
0a!
0_!
0v"
0s!
1d!
1'!
0b!
0&!
0n!
#320000
0!
0[
1<
#325000
1!
1[
0<
1e!
0c!
0p#
1o#
1;!
1.!
0d!
16!
1)!
1`!
#330000
0!
0[
1<
#335000
1!
1[
0<
0e!
1a!
0l#
1k#
1/!
0;!
0.!
06!
1T"
0z!
0>!
18!
19!
12!
10!
0S
1T
1R
06
15
17
#340000
0!
0[
1<
#345000
1!
1[
0<
1#$
0&$
0!$
1~#
13!
11!
0/!
09!
02!
0R
07
#350000
0!
0[
1<
#355000
1!
1[
0<
1<$
0I$
0A$
1@$
14!
03!
1:!
#360000
0!
0[
1<
#365000
1!
1[
0<
1G$
04!
1`
1B!
1@!
0:!
#370000
0!
0[
1<
#375000
1!
1[
0<
1C!
1A!
0G$
1a
0`
0B!
0@!
#380000
0!
0[
1<
#385000
1!
1[
0<
0C!
0A!
1b
0a
1/$
00!
1o!
1"!
1}
1q
1m
1j
1d
1^
1P
11
1q!
1w
0p!
0v
1e
#390000
0!
0[
1<
#395000
1!
1[
0<
1N$
0*$
1r!
01!
1#!
1~
1x
1n
1k
1f
1c
0b
1_
0/$
17#
1v"
1s!
0"!
0!!
0m
0l
0o!
0g
0e
1v
0q
0d
0P
01
0q!
1h
#400000
0!
0[
1<
#405000
1!
1[
0<
0r!
1i
0f
0c
13$
1C$
07#
0v"
0s!
1o
1m
0j
1p!
1g
1w"
1X
1L
1I
1:
1.
1)
0h
#410000
0!
0[
1<
#415000
1!
1[
0<
1r#
1t#
1p
0n
0k
0i
1X"
0w"
1V"
0i!
1j!
1y
1u
0o
0m
1l
1Y"
0W"
08#
1z
0v
1w"
0w
#420000
0!
0[
1<
#425000
1!
1[
0<
1v#
1u#
0x#
1{
0x
0p
0z
0^
0j!
0y
0u
#430000
0!
0[
1<
#435000
1!
1[
0<
1Z#
1Y#
0\#
1|
0{
0_
1k!
1$!
1"!
0}
1v
#440000
0!
0[
1<
#445000
1!
1[
0<
1a#
1l!
0d#
1%!
0#!
0~
0|
1Q"
1u"
1n!
0k!
1b!
0`!
1&!
0$!
0"!
1!!
#450000
0!
0[
1<
#455000
1!
1[
0<
16$
15$
0l!
1c!
0a!
0%!
1v"
1R"
0u"
0Q"
0n!
1d!
0b!
0&!
#460000
0!
0[
1<
#465000
1!
1[
0<
1e!
0c!
1p#
1f!
1;!
1.!
0d!
16!
0)!
1`!
#470000
0!
0[
1<
#475000
1!
1[
0<
0e!
1a!
1l#
1/!
0f!
0;!
0.!
06!
0T"
1z!
0h!
1>!
08!
19!
12!
10!
1S
1R
16
17
